Regressao Carseats
…
grid_rf %>% 
  collect_metrics()

## # A tibble: 40 x 7
##     mtry min_n .metric .estimator  mean     n std_err
##    <int> <int> <chr>   <chr>      <dbl> <int>   <dbl>
##  1     1    17 rmse    standard   0.804    10  0.0421
##  2     1    17 rsq     standard   0.509    10  0.0329
##  3     2     4 rmse    standard   0.703    10  0.0404
##  4     2     4 rsq     standard   0.529    10  0.0326
##  5     2    30 rmse    standard   0.721    10  0.0413
##  6     2    30 rsq     standard   0.532    10  0.0341
##  7     3    10 rmse    standard   0.692    10  0.0413
##  8     3    10 rsq     standard   0.528    10  0.0360
##  9     3    31 rmse    standard   0.699    10  0.0418
## 10     3    31 rsq     standard   0.526    10  0.0340
## # ... with 30 more rows
…
